{
    "metadata": {
        "type": "Object",
        "version": 4.4,
        "generator": "io_three"
    },
    "textures": [],
    "images": [],
    "geometries": [{
        "type": "Geometry",
        "materials": [{
            "shading": "phong",
            "DbgColor": 15658734,
            "colorSpecular": [0.1,0.1,0.1],
            "DbgIndex": 0,
            "visible": true,
            "DbgName": "Material.001",
            "blending": "NormalBlending",
            "depthTest": true,
            "transparent": false,
            "colorDiffuse": [0,0.807843,0.372549],
            "depthWrite": true,
            "doubleSided": true,
            "opacity": 1,
            "colorAmbient": [0,0.807843,0.372549],
            "wireframe": false,
            "colorEmissive": [0,0,0],
            "specularCoef": 50
        }],
        "data": {
            "skinIndices": [],
            "name": "TetrahedronGeometry",
            "bones": [],
            "metadata": {
                "vertices": 4,
                "bones": 0,
                "generator": "io_three",
                "uvs": 1,
                "faces": 4,
                "normals": 4,
                "version": 3,
                "materials": 1,
                "morphTargets": 0
            },
            "uvs": [[0.625,0.304087,0.875,0.695913,0.375,0.695913,0.125,0.304087]],
            "skinWeights": [],
            "normals": [-0.577349,-0.577349,-0.577349,0.577349,-0.577349,0.577349,-0.577349,0.577349,0.577349,0.577349,0.577349,-0.577349],
            "influencesPerVertex": 2,
            "morphTargets": [],
            "vertices": [0.288675,-0.288675,0.288675,-0.288675,-0.288675,-0.288675,-0.288675,0.288675,0.288675,0.288675,0.288675,-0.288675],
            "faces": [42,1,0,2,0,0,1,2,0,1,2,42,3,2,0,0,3,2,1,3,2,1,42,3,0,1,0,3,1,0,3,1,0,42,3,1,2,0,3,0,2,3,0,2],
            "animations": []
        },
        "uuid": "851F9C7E-B422-34E2-AC44-5D7F82CDFB33"
    }],
    "object": {
        "type": "Scene",
        "matrix": [1,0,0,0,0,1,0,0,0,0,1,0,0,0,0,1],
        "children": [{
            "name": "LightPreset",
            "uuid": "1783D250-7BC6-30D0-B7CB-5461D8774CE2",
            "matrix": [-1,0,0,0,0,0,1,0,0,1,0,0,0,0,0,1],
            "visible": true,
            "type": "Object",
            "children": [{
                "name": "BackLight",
                "uuid": "6C2D9241-E0B7-3878-BBEB-78107E823E3E",
                "matrix": [-0.117758,-0.595422,0.794736,0,0.794736,0.42335,0.434935,0,-0.595422,0.682823,0.42335,0,-3.43767,3.94228,2.44421,1],
                "visible": true,
                "type": "DirectionalLight",
                "castShadow": false,
                "color": 7838134,
                "intensity": 0.75,
                "distance": 0
            },{
                "name": "FillLight",
                "uuid": "45C90A33-0D2F-3540-A48E-3AFDDA8A011B",
                "matrix": [0.398127,0.775804,-0.489512,0,-0.489512,0.630973,0.601873,0,0.775804,-0,0.630973,0,8.606,0,6.99939,1],
                "visible": true,
                "type": "DirectionalLight",
                "castShadow": false,
                "color": 15062196,
                "intensity": 0.85,
                "distance": 0
            },{
                "name": "KeyLight",
                "uuid": "50157FD0-6064-3AF8-A62F-23E1675946D0",
                "matrix": [0.817645,-0.527833,0.229888,0,0.229888,0.66542,0.710188,0,-0.527833,-0.527833,0.66542,0,-3.04745,-3.04745,3.8418,1],
                "visible": true,
                "type": "DirectionalLight",
                "castShadow": false,
                "color": 16776180,
                "intensity": 1,
                "distance": 0
            }]
        },{
            "name": "Tetrahedron",
            "uuid": "AA56E29F-50D1-34AA-A72B-CAC7023901CF",
            "matrix": [-1,0,0,0,0,0,1,0,0,1,0,0,0,0,0,1],
            "visible": true,
            "type": "Mesh",
            "material": "109C8DEC-623D-3F38-8AFD-395BEC6741C8",
            "castShadow": true,
            "receiveShadow": true,
            "geometry": "851F9C7E-B422-34E2-AC44-5D7F82CDFB33"
        }],
        "uuid": "5842BE35-722C-4B1F-8DD9-83ED56E98EB3"
    },
    "materials": [{
        "shininess": 50,
        "name": "Material.001",
        "emissive": 0,
        "type": "MeshPhongMaterial",
        "side": 2,
        "blending": "NormalBlending",
        "depthTest": true,
        "uuid": "109C8DEC-623D-3F38-8AFD-395BEC6741C8",
        "color": 52831,
        "depthWrite": true,
        "ambient": 52831,
        "vertexColors": false,
        "specular": 1644825
    }],
    "animations": [{
        "fps": 29,
        "name": "default",
        "tracks": []
    }]
}